{
  "unpublishedPage": {
    "name": "Interstitial",
    "slug": "interstitial",
    "layouts": [
      {
        "viewMode": false,
        "dsl": {
          "widgetName": "MainContainer",
          "backgroundColor": "none",
          "rightColumn": 1160,
          "snapColumns": 64,
          "detachFromLayout": true,
          "widgetId": "0",
          "topRow": 0,
          "bottomRow": 920,
          "containerStyle": "none",
          "snapRows": 92,
          "parentRowSpace": 1,
          "type": "CANVAS_WIDGET",
          "canExtend": true,
          "version": 53,
          "minHeight": 930,
          "parentColumnSpace": 1,
          "dynamicBindingPathList": [],
          "leftColumn": 0,
          "children": [
            {
              "widgetName": "Text1",
              "displayName": "Text",
              "iconSVG": "/static/media/icon.97c59b52.svg",
              "topRow": 14,
              "bottomRow": 26,
              "parentRowSpace": 10,
              "type": "TEXT_WIDGET",
              "hideCard": false,
              "animateLoading": true,
              "parentColumnSpace": 17.0625,
              "dynamicTriggerPathList": [],
              "leftColumn": 17,
              "dynamicBindingPathList": [],
              "shouldTruncate": false,
              "truncateButtonColor": "#FFC13D",
              "text": "GDPR\n\nCookies lelo",
              "key": "jduqchna1e",
              "rightColumn": 33,
              "textAlign": "LEFT",
              "widgetId": "1kx1qqugs9",
              "isVisible": true,
              "fontStyle": "BOLD",
              "textColor": "#231F20",
              "shouldScroll": false,
              "version": 1,
              "parentId": "0",
              "renderMode": "CANVAS",
              "isLoading": false,
              "fontSize": "HEADING1"
            },
            {
              "widgetName": "Button1",
              "buttonColor": "#03B365",
              "displayName": "Button",
              "iconSVG": "/static/media/icon.cca02633.svg",
              "topRow": 30,
              "bottomRow": 34,
              "parentRowSpace": 10,
              "type": "BUTTON_WIDGET",
              "hideCard": false,
              "animateLoading": true,
              "parentColumnSpace": 17.0625,
              "dynamicTriggerPathList": [],
              "leftColumn": 17,
              "dynamicBindingPathList": [],
              "text": "Sure",
              "isDisabled": false,
              "key": "jplblfbmsk",
              "rightColumn": 33,
              "isDefaultClickDisabled": true,
              "widgetId": "s99aespxxz",
              "isVisible": true,
              "recaptchaType": "V3",
              "version": 1,
              "parentId": "0",
              "renderMode": "CANVAS",
              "isLoading": false,
              "buttonVariant": "PRIMARY",
              "placement": "CENTER"
            },
            {
              "widgetName": "Button2",
              "buttonColor": "#DD4B34",
              "displayName": "Button",
              "iconSVG": "/static/media/icon.cca02633.svg",
              "topRow": 38,
              "bottomRow": 42,
              "parentRowSpace": 10,
              "type": "BUTTON_WIDGET",
              "hideCard": false,
              "animateLoading": true,
              "parentColumnSpace": 17.0625,
              "dynamicTriggerPathList": [],
              "leftColumn": 30,
              "dynamicBindingPathList": [],
              "text": "No Thanks",
              "isDisabled": false,
              "key": "jplblfbmsk",
              "rightColumn": 46,
              "isDefaultClickDisabled": true,
              "widgetId": "hszapmbzsh",
              "isVisible": true,
              "recaptchaType": "V3",
              "version": 1,
              "parentId": "0",
              "renderMode": "CANVAS",
              "isLoading": false,
              "buttonVariant": "SECONDARY",
              "placement": "CENTER"
            }
          ]
        },
        "layoutOnLoadActions": [],
        "widgetNames": [
          "Button1",
          "Button2",
          "MainContainer",
          "Text1"
        ],
        "validOnPageLoadActions": true,
        "id": "Interstitial",
        "deleted": false,
        "policies": [],
        "userPermissions": []
      }
    ],
    "userPermissions": [],
    "policies": [],
    "isHidden": false
  },
  "deleted": false,
  "policies": [],
  "gitSyncId": "6226e5125386390b2c7095f5_6226e5aa5386390b2c709615"
}