{
  "unpublishedPage": {
    "name": "HomePage",
    "slug": "homepage",
    "layouts": [
      {
        "viewMode": false,
        "dsl": {
          "widgetName": "MainContainer",
          "backgroundColor": "none",
          "rightColumn": 1160,
          "snapColumns": 64,
          "detachFromLayout": true,
          "widgetId": "0",
          "topRow": 0,
          "bottomRow": 940,
          "containerStyle": "none",
          "snapRows": 125,
          "parentRowSpace": 1,
          "type": "CANVAS_WIDGET",
          "canExtend": true,
          "version": 53,
          "minHeight": 1130,
          "parentColumnSpace": 1,
          "dynamicTriggerPathList": [],
          "dynamicBindingPathList": [],
          "leftColumn": 0,
          "children": [
            {
              "backgroundColor": "#FFFFFF",
              "widgetName": "Container1",
              "rightColumn": 40,
              "widgetId": "mvubsemxfo",
              "containerStyle": "card",
              "topRow": 0,
              "bottomRow": 87,
              "parentRowSpace": 10,
              "isVisible": "true",
              "type": "CONTAINER_WIDGET",
              "version": 1,
              "parentId": "0",
              "isLoading": false,
              "parentColumnSpace": 19.75,
              "leftColumn": 0,
              "children": [
                {
                  "widgetName": "Canvas1",
                  "rightColumn": 632,
                  "detachFromLayout": true,
                  "widgetId": "59rw5mx0bq",
                  "containerStyle": "none",
                  "topRow": 0,
                  "bottomRow": 890,
                  "parentRowSpace": 1,
                  "isVisible": "true",
                  "canExtend": false,
                  "type": "CANVAS_WIDGET",
                  "version": 1,
                  "parentId": "mvubsemxfo",
                  "minHeight": 870,
                  "isLoading": false,
                  "parentColumnSpace": 1,
                  "dynamicTriggerPathList": [],
                  "leftColumn": 0,
                  "dynamicBindingPathList": [],
                  "children": [
                    {
                      "widgetName": "data_table",
                      "columnOrder": [
                        "revenue",
                        "imdb_id",
                        "release_date",
                        "genres",
                        "vote_average",
                        "tagline",
                        "_id",
                        "title",
                        "vote_count",
                        "poster_path",
                        "homepage",
                        "status",
                        "customColumn1"
                      ],
                      "dynamicPropertyPathList": [
                        {
                          "key": "onPageChange"
                        }
                      ],
                      "isVisibleDownload": true,
                      "topRow": 10,
                      "bottomRow": 86,
                      "parentRowSpace": 10,
                      "onPageChange": "{{FindQuery.run()}}",
                      "isSortable": true,
                      "type": "TABLE_WIDGET",
                      "defaultSelectedRow": "0",
                      "parentColumnSpace": 1,
                      "dynamicTriggerPathList": [
                        {
                          "key": "onPageChange"
                        },
                        {
                          "key": "primaryColumns.customColumn1.onClick"
                        },
                        {
                          "key": "onSearchTextChanged"
                        }
                      ],
                      "dynamicBindingPathList": [
                        {
                          "key": "primaryColumns.customColumn1.buttonLabel"
                        },
                        {
                          "key": "tableData"
                        },
                        {
                          "key": "primaryColumns._id.computedValue"
                        },
                        {
                          "key": "primaryColumns.revenue.computedValue"
                        },
                        {
                          "key": "primaryColumns.imdb_id.computedValue"
                        },
                        {
                          "key": "primaryColumns.release_date.computedValue"
                        },
                        {
                          "key": "primaryColumns.genres.computedValue"
                        },
                        {
                          "key": "primaryColumns.vote_average.computedValue"
                        },
                        {
                          "key": "primaryColumns.tagline.computedValue"
                        },
                        {
                          "key": "primaryColumns.title.computedValue"
                        },
                        {
                          "key": "primaryColumns.vote_count.computedValue"
                        },
                        {
                          "key": "primaryColumns.poster_path.computedValue"
                        },
                        {
                          "key": "primaryColumns.homepage.computedValue"
                        },
                        {
                          "key": "primaryColumns.status.computedValue"
                        }
                      ],
                      "leftColumn": 0,
                      "primaryColumns": {
                        "imdb_id": {
                          "index": 1,
                          "width": 150,
                          "id": "imdb_id",
                          "horizontalAlignment": "LEFT",
                          "verticalAlignment": "CENTER",
                          "columnType": "text",
                          "textSize": "PARAGRAPH",
                          "enableFilter": true,
                          "enableSort": true,
                          "isVisible": true,
                          "isDisabled": false,
                          "isCellVisible": true,
                          "isDerived": false,
                          "label": "imdb_id",
                          "computedValue": "{{data_table.sanitizedTableData.map((currentRow) => ( currentRow.imdb_id))}}"
                        },
                        "customColumn1": {
                          "isCellVisible": true,
                          "isDerived": true,
                          "computedValue": "{{data_table.sanitizedTableData.map((currentRow) => ( currentRow.customColumn1))}}",
                          "onClick": "{{showModal('Delete_Modal')}}",
                          "textSize": "PARAGRAPH",
                          "buttonColor": "#DD4B34",
                          "index": 7,
                          "isVisible": true,
                          "label": "customColumn1",
                          "buttonLabel": "{{data_table.sanitizedTableData.map((currentRow) => { return 'Delete'})}}",
                          "columnType": "button",
                          "horizontalAlignment": "LEFT",
                          "width": 150,
                          "enableFilter": true,
                          "enableSort": true,
                          "id": "customColumn1",
                          "isDisabled": false,
                          "buttonLabelColor": "#FFFFFF",
                          "verticalAlignment": "CENTER"
                        },
                        "title": {
                          "index": 7,
                          "width": 150,
                          "id": "title",
                          "horizontalAlignment": "LEFT",
                          "verticalAlignment": "CENTER",
                          "columnType": "text",
                          "textSize": "PARAGRAPH",
                          "enableFilter": true,
                          "enableSort": true,
                          "isVisible": true,
                          "isDisabled": false,
                          "isCellVisible": true,
                          "isDerived": false,
                          "label": "title",
                          "computedValue": "{{data_table.sanitizedTableData.map((currentRow) => ( currentRow.title))}}"
                        },
                        "poster_path": {
                          "index": 9,
                          "width": 150,
                          "id": "poster_path",
                          "horizontalAlignment": "LEFT",
                          "verticalAlignment": "CENTER",
                          "columnType": "text",
                          "textSize": "PARAGRAPH",
                          "enableFilter": true,
                          "enableSort": true,
                          "isVisible": true,
                          "isDisabled": false,
                          "isCellVisible": true,
                          "isDerived": false,
                          "label": "poster_path",
                          "computedValue": "{{data_table.sanitizedTableData.map((currentRow) => ( currentRow.poster_path))}}"
                        },
                        "appsmith_mongo_escape_id": {
                          "isCellVisible": true,
                          "isDerived": false,
                          "computedValue": "{{data_table.sanitizedTableData.map((currentRow) => ( currentRow._id))}}",
                          "textSize": "PARAGRAPH",
                          "index": 1,
                          "isVisible": true,
                          "label": "_id",
                          "columnType": "text",
                          "horizontalAlignment": "LEFT",
                          "width": 150,
                          "enableFilter": true,
                          "enableSort": true,
                          "id": "_id",
                          "verticalAlignment": "CENTER"
                        },
                        "revenue": {
                          "index": 0,
                          "width": 150,
                          "id": "revenue",
                          "horizontalAlignment": "LEFT",
                          "verticalAlignment": "CENTER",
                          "columnType": "text",
                          "textSize": "PARAGRAPH",
                          "enableFilter": true,
                          "enableSort": true,
                          "isVisible": true,
                          "isDisabled": false,
                          "isCellVisible": true,
                          "isDerived": false,
                          "label": "revenue",
                          "computedValue": "{{data_table.sanitizedTableData.map((currentRow) => ( currentRow.revenue))}}"
                        },
                        "release_date": {
                          "index": 2,
                          "width": 150,
                          "id": "release_date",
                          "horizontalAlignment": "LEFT",
                          "verticalAlignment": "CENTER",
                          "columnType": "text",
                          "textSize": "PARAGRAPH",
                          "enableFilter": true,
                          "enableSort": true,
                          "isVisible": true,
                          "isDisabled": false,
                          "isCellVisible": true,
                          "isDerived": false,
                          "label": "release_date",
                          "computedValue": "{{data_table.sanitizedTableData.map((currentRow) => ( currentRow.release_date))}}"
                        },
                        "genres": {
                          "index": 3,
                          "width": 150,
                          "id": "genres",
                          "horizontalAlignment": "LEFT",
                          "verticalAlignment": "CENTER",
                          "columnType": "text",
                          "textSize": "PARAGRAPH",
                          "enableFilter": true,
                          "enableSort": true,
                          "isVisible": true,
                          "isDisabled": false,
                          "isCellVisible": true,
                          "isDerived": false,
                          "label": "genres",
                          "computedValue": "{{data_table.sanitizedTableData.map((currentRow) => ( currentRow.genres))}}"
                        },
                        "vote_average": {
                          "index": 4,
                          "width": 150,
                          "id": "vote_average",
                          "horizontalAlignment": "LEFT",
                          "verticalAlignment": "CENTER",
                          "columnType": "text",
                          "textSize": "PARAGRAPH",
                          "enableFilter": true,
                          "enableSort": true,
                          "isVisible": true,
                          "isDisabled": false,
                          "isCellVisible": true,
                          "isDerived": false,
                          "label": "vote_average",
                          "computedValue": "{{data_table.sanitizedTableData.map((currentRow) => ( currentRow.vote_average))}}"
                        },
                        "tagline": {
                          "index": 5,
                          "width": 150,
                          "id": "tagline",
                          "horizontalAlignment": "LEFT",
                          "verticalAlignment": "CENTER",
                          "columnType": "text",
                          "textSize": "PARAGRAPH",
                          "enableFilter": true,
                          "enableSort": true,
                          "isVisible": true,
                          "isDisabled": false,
                          "isCellVisible": true,
                          "isDerived": false,
                          "label": "tagline",
                          "computedValue": "{{data_table.sanitizedTableData.map((currentRow) => ( currentRow.tagline))}}"
                        },
                        "vote_count": {
                          "index": 8,
                          "width": 150,
                          "id": "vote_count",
                          "horizontalAlignment": "LEFT",
                          "verticalAlignment": "CENTER",
                          "columnType": "text",
                          "textSize": "PARAGRAPH",
                          "enableFilter": true,
                          "enableSort": true,
                          "isVisible": true,
                          "isDisabled": false,
                          "isCellVisible": true,
                          "isDerived": false,
                          "label": "vote_count",
                          "computedValue": "{{data_table.sanitizedTableData.map((currentRow) => ( currentRow.vote_count))}}"
                        },
                        "homepage": {
                          "index": 10,
                          "width": 150,
                          "id": "homepage",
                          "horizontalAlignment": "LEFT",
                          "verticalAlignment": "CENTER",
                          "columnType": "text",
                          "textSize": "PARAGRAPH",
                          "enableFilter": true,
                          "enableSort": true,
                          "isVisible": true,
                          "isDisabled": false,
                          "isCellVisible": true,
                          "isDerived": false,
                          "label": "homepage",
                          "computedValue": "{{data_table.sanitizedTableData.map((currentRow) => ( currentRow.homepage))}}"
                        },
                        "status": {
                          "index": 11,
                          "width": 150,
                          "id": "status",
                          "horizontalAlignment": "LEFT",
                          "verticalAlignment": "CENTER",
                          "columnType": "text",
                          "textSize": "PARAGRAPH",
                          "enableFilter": true,
                          "enableSort": true,
                          "isVisible": true,
                          "isDisabled": false,
                          "isCellVisible": true,
                          "isDerived": false,
                          "label": "status",
                          "computedValue": "{{data_table.sanitizedTableData.map((currentRow) => ( currentRow.status))}}"
                        }
                      },
                      "delimiter": ",",
                      "derivedColumns": {
                        "customColumn1": {
                          "isDerived": true,
                          "computedValue": "",
                          "onClick": "{{DeleteQuery.run()}}",
                          "textSize": "PARAGRAPH",
                          "buttonStyle": "#DD4B34",
                          "index": 7,
                          "isVisible": true,
                          "label": "customColumn1",
                          "buttonLabel": "{{data_table.sanitizedTableData.map((currentRow) => { return 'Delete'})}}",
                          "columnType": "button",
                          "horizontalAlignment": "LEFT",
                          "width": 150,
                          "enableFilter": true,
                          "enableSort": true,
                          "id": "customColumn1",
                          "buttonLabelColor": "#FFFFFF",
                          "verticalAlignment": "CENTER"
                        }
                      },
                      "rightColumn": 64,
                      "textSize": "PARAGRAPH",
                      "widgetId": "jabdu9f16g",
                      "isVisibleFilters": true,
                      "tableData": "{{FindQuery.data}}",
                      "isVisible": "true",
                      "label": "Data",
                      "searchKey": "",
                      "version": 3,
                      "parentId": "59rw5mx0bq",
                      "serverSidePaginationEnabled": true,
                      "isLoading": false,
                      "isVisibleCompactMode": true,
                      "onSearchTextChanged": "{{FindQuery.run()}}",
                      "horizontalAlignment": "LEFT",
                      "isVisibleSearch": true,
                      "isVisiblePagination": true,
                      "verticalAlignment": "CENTER",
                      "columnSizeMap": {
                        "task": 245,
                        "deliveryAddress": 170,
                        "step": 62,
                        "id": 228,
                        "status": 75
                      }
                    },
                    {
                      "isRequired": false,
                      "widgetName": "key_select",
                      "isFilterable": true,
                      "rightColumn": 22,
                      "dynamicPropertyPathList": [
                        {
                          "key": "isVisible"
                        }
                      ],
                      "widgetId": "asmgosgxjm",
                      "topRow": 5,
                      "bottomRow": 9,
                      "parentRowSpace": 10,
                      "isVisible": "{{FindQuery.data.length > 0}}",
                      "label": "",
                      "type": "DROP_DOWN_WIDGET",
                      "version": 1,
                      "parentId": "59rw5mx0bq",
                      "isLoading": false,
                      "defaultOptionValue": "genres",
                      "parentColumnSpace": 18.8828125,
                      "dynamicTriggerPathList": [
                        {
                          "key": "onOptionChange"
                        }
                      ],
                      "leftColumn": 7,
                      "dynamicBindingPathList": [
                        {
                          "key": "isVisible"
                        }
                      ],
                      "options": "[\n{\n\t\"label\": \"imdb_id\",\n\t\"value\": \"imdb_id\"\n}, \n{\n\t\"label\": \"title\",\n\t\"value\": \"title\"\n}, \n{\n\t\"label\": \"homepage\",\n\t\"value\": \"homepage\"\n}, \n{\n\t\"label\": \"genres\",\n\t\"value\": \"genres\"\n}]",
                      "onOptionChange": "{{FindQuery.run()}}",
                      "isDisabled": false
                    },
                    {
                      "widgetName": "Text15",
                      "rightColumn": 7,
                      "textAlign": "LEFT",
                      "widgetId": "l8pgl90klz",
                      "topRow": 5,
                      "bottomRow": 9,
                      "parentRowSpace": 10,
                      "isVisible": "true",
                      "fontStyle": "BOLD",
                      "type": "TEXT_WIDGET",
                      "textColor": "#231F20",
                      "version": 1,
                      "parentId": "59rw5mx0bq",
                      "isLoading": false,
                      "parentColumnSpace": 19.75,
                      "dynamicTriggerPathList": [],
                      "leftColumn": 0,
                      "dynamicBindingPathList": [],
                      "fontSize": "PARAGRAPH",
                      "text": "Order By :"
                    },
                    {
                      "isRequired": false,
                      "widgetName": "order_select",
                      "isFilterable": true,
                      "rightColumn": 30,
                      "dynamicPropertyPathList": [
                        {
                          "key": "isVisible"
                        }
                      ],
                      "widgetId": "10v8a19m25",
                      "topRow": 5,
                      "bottomRow": 9,
                      "parentRowSpace": 10,
                      "isVisible": "{{FindQuery.data.length > 0}}",
                      "label": "",
                      "type": "DROP_DOWN_WIDGET",
                      "version": 1,
                      "parentId": "59rw5mx0bq",
                      "isLoading": false,
                      "defaultOptionValue": "1",
                      "parentColumnSpace": 19.75,
                      "dynamicTriggerPathList": [
                        {
                          "key": "onOptionChange"
                        }
                      ],
                      "leftColumn": 22,
                      "dynamicBindingPathList": [
                        {
                          "key": "isVisible"
                        }
                      ],
                      "options": "[\n  {\n    \"label\": \"ASC\",\n    \"value\": \"1\"\n  },\n  {\n    \"label\": \"DESC\",\n    \"value\": \"-1\"\n  }\n]",
                      "onOptionChange": "{{FindQuery.run()}}",
                      "isDisabled": false
                    },
                    {
                      "widgetName": "Text16",
                      "rightColumn": 41,
                      "textAlign": "LEFT",
                      "widgetId": "urzv99hdc8",
                      "topRow": 0,
                      "bottomRow": 4,
                      "parentRowSpace": 10,
                      "isVisible": "true",
                      "fontStyle": "BOLD",
                      "type": "TEXT_WIDGET",
                      "textColor": "#231F20",
                      "version": 1,
                      "parentId": "59rw5mx0bq",
                      "isLoading": false,
                      "parentColumnSpace": 11.78515625,
                      "dynamicTriggerPathList": [],
                      "leftColumn": 0,
                      "dynamicBindingPathList": [],
                      "fontSize": "HEADING1",
                      "text": "movies Data"
                    },
                    {
                      "boxShadow": "NONE",
                      "widgetName": "refresh_btn",
                      "rightColumn": 64,
                      "onClick": "{{FindQuery.run()}}",
                      "iconName": "refresh",
                      "buttonColor": "#03B365",
                      "widgetId": "nj85l57r47",
                      "topRow": 5,
                      "bottomRow": 9,
                      "parentRowSpace": 10,
                      "isVisible": "true",
                      "type": "ICON_BUTTON_WIDGET",
                      "version": 1,
                      "parentId": "59rw5mx0bq",
                      "isLoading": false,
                      "parentColumnSpace": 12.0703125,
                      "dynamicTriggerPathList": [
                        {
                          "key": "onClick"
                        }
                      ],
                      "borderRadius": "CIRCLE",
                      "leftColumn": 60,
                      "dynamicBindingPathList": [],
                      "buttonVariant": "TERTIARY",
                      "isDisabled": false
                    },
                    {
                      "boxShadow": "NONE",
                      "widgetName": "add_btn",
                      "rightColumn": 60,
                      "onClick": "{{showModal('Insert_Modal')}}",
                      "iconName": "add",
                      "buttonColor": "#03B365",
                      "widgetId": "atgojamsmw",
                      "topRow": 5,
                      "bottomRow": 9,
                      "parentRowSpace": 10,
                      "isVisible": "true",
                      "type": "ICON_BUTTON_WIDGET",
                      "version": 1,
                      "parentId": "59rw5mx0bq",
                      "isLoading": false,
                      "parentColumnSpace": 12.0703125,
                      "dynamicTriggerPathList": [
                        {
                          "key": "onClick"
                        }
                      ],
                      "borderRadius": "CIRCLE",
                      "leftColumn": 56,
                      "dynamicBindingPathList": [],
                      "buttonVariant": "TERTIARY",
                      "isDisabled": false
                    }
                  ]
                }
              ]
            },
            {
              "widgetName": "Delete_Modal",
              "rightColumn": 45,
              "detachFromLayout": true,
              "widgetId": "i3whp03wf0",
              "topRow": 13,
              "bottomRow": 37,
              "parentRowSpace": 10,
              "canOutsideClickClose": true,
              "type": "MODAL_WIDGET",
              "canEscapeKeyClose": true,
              "version": 2,
              "parentId": "0",
              "shouldScrollContents": false,
              "isLoading": false,
              "parentColumnSpace": 18.8828125,
              "dynamicTriggerPathList": [],
              "leftColumn": 21,
              "dynamicBindingPathList": [],
              "children": [
                {
                  "widgetName": "Canvas3",
                  "rightColumn": 453.1875,
                  "detachFromLayout": true,
                  "widgetId": "zi8fjakv8o",
                  "topRow": 0,
                  "bottomRow": 230,
                  "parentRowSpace": 1,
                  "isVisible": "true",
                  "canExtend": true,
                  "type": "CANVAS_WIDGET",
                  "version": 1,
                  "parentId": "i3whp03wf0",
                  "shouldScrollContents": false,
                  "minHeight": 240,
                  "isLoading": false,
                  "parentColumnSpace": 1,
                  "dynamicTriggerPathList": [],
                  "leftColumn": 0,
                  "dynamicBindingPathList": [],
                  "children": [
                    {
                      "widgetName": "Alert_text",
                      "rightColumn": 41,
                      "textAlign": "LEFT",
                      "widgetId": "35yoxo4oec",
                      "topRow": 1,
                      "bottomRow": 5,
                      "isVisible": "true",
                      "fontStyle": "BOLD",
                      "type": "TEXT_WIDGET",
                      "textColor": "#231F20",
                      "version": 1,
                      "parentId": "zi8fjakv8o",
                      "isLoading": false,
                      "dynamicTriggerPathList": [],
                      "leftColumn": 1,
                      "dynamicBindingPathList": [],
                      "fontSize": "HEADING1",
                      "text": "Delete Row"
                    },
                    {
                      "widgetName": "Button1",
                      "rightColumn": 46,
                      "onClick": "{{closeModal('Delete_Modal')}}",
                      "isDefaultClickDisabled": true,
                      "dynamicPropertyPathList": [],
                      "buttonColor": "#03B365",
                      "widgetId": "lryg8kw537",
                      "topRow": 17,
                      "bottomRow": 21,
                      "isVisible": "true",
                      "type": "BUTTON_WIDGET",
                      "version": 1,
                      "recaptchaType": "V3",
                      "parentId": "zi8fjakv8o",
                      "isLoading": false,
                      "dynamicTriggerPathList": [
                        {
                          "key": "onClick"
                        }
                      ],
                      "leftColumn": 34,
                      "dynamicBindingPathList": [],
                      "buttonVariant": "PRIMARY",
                      "text": "Cancel",
                      "isDisabled": false
                    },
                    {
                      "widgetName": "Delete_Button",
                      "rightColumn": 64,
                      "onClick": "{{DeleteQuery.run(() => FindQuery.run(() => closeModal('Delete_Modal')), () => {})}}",
                      "isDefaultClickDisabled": true,
                      "dynamicPropertyPathList": [
                        {
                          "key": "onClick"
                        }
                      ],
                      "buttonColor": "#F22B2B",
                      "widgetId": "qq02lh7ust",
                      "topRow": 17,
                      "bottomRow": 21,
                      "isVisible": "true",
                      "type": "BUTTON_WIDGET",
                      "version": 1,
                      "recaptchaType": "V3",
                      "parentId": "zi8fjakv8o",
                      "isLoading": false,
                      "dynamicTriggerPathList": [
                        {
                          "key": "onClick"
                        }
                      ],
                      "leftColumn": 48,
                      "dynamicBindingPathList": [],
                      "buttonVariant": "PRIMARY",
                      "text": "Confirm",
                      "isDisabled": false
                    },
                    {
                      "widgetName": "Text12",
                      "rightColumn": 63,
                      "textAlign": "LEFT",
                      "widgetId": "48uac29g6e",
                      "topRow": 8,
                      "bottomRow": 12,
                      "parentRowSpace": 10,
                      "isVisible": "true",
                      "fontStyle": "BOLD",
                      "type": "TEXT_WIDGET",
                      "textColor": "#231F20",
                      "version": 1,
                      "parentId": "zi8fjakv8o",
                      "isLoading": false,
                      "parentColumnSpace": 6.875,
                      "dynamicTriggerPathList": [],
                      "leftColumn": 1,
                      "dynamicBindingPathList": [],
                      "fontSize": "PARAGRAPH",
                      "text": "Are you sure you want to delete this item?"
                    }
                  ],
                  "isDisabled": false
                }
              ],
              "width": 456,
              "height": 240
            },
            {
              "widgetName": "Insert_Modal",
              "rightColumn": 41,
              "detachFromLayout": true,
              "widgetId": "vmorzie6eq",
              "topRow": 16,
              "bottomRow": 40,
              "parentRowSpace": 10,
              "canOutsideClickClose": true,
              "type": "MODAL_WIDGET",
              "canEscapeKeyClose": true,
              "version": 2,
              "parentId": "0",
              "shouldScrollContents": false,
              "isLoading": false,
              "parentColumnSpace": 18.8828125,
              "dynamicTriggerPathList": [],
              "leftColumn": 17,
              "dynamicBindingPathList": [],
              "children": [
                {
                  "widgetName": "Canvas4",
                  "rightColumn": 453.1875,
                  "detachFromLayout": true,
                  "widgetId": "9rhv3ioohq",
                  "topRow": 0,
                  "bottomRow": 610,
                  "parentRowSpace": 1,
                  "isVisible": "true",
                  "canExtend": true,
                  "type": "CANVAS_WIDGET",
                  "version": 1,
                  "parentId": "vmorzie6eq",
                  "shouldScrollContents": false,
                  "minHeight": 600,
                  "isLoading": false,
                  "parentColumnSpace": 1,
                  "dynamicTriggerPathList": [],
                  "leftColumn": 0,
                  "dynamicBindingPathList": [],
                  "children": [
                    {
                      "widgetName": "Form2",
                      "backgroundColor": "#F6F7F8",
                      "rightColumn": 64,
                      "widgetId": "1ruewbc4ef",
                      "topRow": 0,
                      "bottomRow": 58,
                      "parentRowSpace": 10,
                      "isVisible": "true",
                      "type": "FORM_WIDGET",
                      "parentId": "9rhv3ioohq",
                      "isLoading": false,
                      "shouldScrollContents": false,
                      "parentColumnSpace": 8,
                      "dynamicTriggerPathList": [],
                      "leftColumn": 1,
                      "dynamicBindingPathList": [],
                      "children": [
                        {
                          "widgetName": "Canvas5",
                          "rightColumn": 224,
                          "detachFromLayout": true,
                          "widgetId": "tp9pui0e6y",
                          "containerStyle": "none",
                          "topRow": 0,
                          "bottomRow": 570,
                          "parentRowSpace": 1,
                          "isVisible": "true",
                          "canExtend": false,
                          "type": "CANVAS_WIDGET",
                          "version": 1,
                          "parentId": "1ruewbc4ef",
                          "minHeight": 580,
                          "isLoading": false,
                          "parentColumnSpace": 1,
                          "dynamicTriggerPathList": [],
                          "leftColumn": 0,
                          "dynamicBindingPathList": [],
                          "children": [
                            {
                              "resetFormOnClick": true,
                              "widgetName": "insert_button",
                              "rightColumn": 62,
                              "onClick": "{{InsertQuery.run(() => FindQuery.run(() => closeModal('Insert_Modal')))}}",
                              "isDefaultClickDisabled": true,
                              "dynamicPropertyPathList": [
                                {
                                  "key": "onClick"
                                }
                              ],
                              "buttonColor": "#03B365",
                              "widgetId": "h8vxf3oh4s",
                              "topRow": 51,
                              "bottomRow": 55,
                              "isVisible": "true",
                              "type": "FORM_BUTTON_WIDGET",
                              "version": 1,
                              "recaptchaType": "V3",
                              "parentId": "tp9pui0e6y",
                              "isLoading": false,
                              "dynamicTriggerPathList": [
                                {
                                  "key": "onClick"
                                }
                              ],
                              "disabledWhenInvalid": true,
                              "leftColumn": 43,
                              "dynamicBindingPathList": [],
                              "googleRecaptchaKey": "",
                              "buttonVariant": "PRIMARY",
                              "text": "Submit"
                            },
                            {
                              "resetFormOnClick": true,
                              "widgetName": "reset_button",
                              "rightColumn": 42,
                              "onClick": "{{closeModal('Insert_Modal')}}",
                              "isDefaultClickDisabled": true,
                              "buttonColor": "#03B365",
                              "widgetId": "o23gs26wm5",
                              "topRow": 51,
                              "bottomRow": 55,
                              "isVisible": "true",
                              "type": "FORM_BUTTON_WIDGET",
                              "version": 1,
                              "recaptchaType": "V3",
                              "parentId": "tp9pui0e6y",
                              "isLoading": false,
                              "dynamicTriggerPathList": [
                                {
                                  "key": "onClick"
                                }
                              ],
                              "disabledWhenInvalid": false,
                              "leftColumn": 29,
                              "dynamicBindingPathList": [],
                              "buttonVariant": "SECONDARY",
                              "text": "Close"
                            },
                            {
                              "widgetName": "Text21",
                              "rightColumn": 19,
                              "textAlign": "RIGHT",
                              "widgetId": "cfmxebyn06",
                              "topRow": 5,
                              "bottomRow": 9,
                              "parentRowSpace": 10,
                              "isVisible": "true",
                              "fontStyle": "BOLD",
                              "type": "TEXT_WIDGET",
                              "textColor": "#231F20",
                              "version": 1,
                              "parentId": "tp9pui0e6y",
                              "isLoading": false,
                              "parentColumnSpace": 7.6865234375,
                              "dynamicTriggerPathList": [],
                              "leftColumn": 3,
                              "dynamicBindingPathList": [],
                              "fontSize": "PARAGRAPH",
                              "text": "genres:"
                            },
                            {
                              "widgetName": "Text22",
                              "rightColumn": 19,
                              "textAlign": "RIGHT",
                              "widgetId": "jsffaxrqhw",
                              "topRow": 12,
                              "bottomRow": 16,
                              "parentRowSpace": 10,
                              "isVisible": "true",
                              "fontStyle": "BOLD",
                              "type": "TEXT_WIDGET",
                              "textColor": "#231F20",
                              "version": 1,
                              "parentId": "tp9pui0e6y",
                              "isLoading": false,
                              "parentColumnSpace": 7.6865234375,
                              "dynamicTriggerPathList": [],
                              "leftColumn": 2,
                              "dynamicBindingPathList": [],
                              "fontSize": "PARAGRAPH",
                              "text": "title:"
                            },
                            {
                              "widgetName": "Text23",
                              "rightColumn": 19,
                              "textAlign": "RIGHT",
                              "widgetId": "btk60uozsm",
                              "topRow": 19,
                              "bottomRow": 23,
                              "parentRowSpace": 10,
                              "isVisible": "true",
                              "fontStyle": "BOLD",
                              "type": "TEXT_WIDGET",
                              "textColor": "#231F20",
                              "version": 1,
                              "parentId": "tp9pui0e6y",
                              "isLoading": false,
                              "parentColumnSpace": 7.6865234375,
                              "dynamicTriggerPathList": [],
                              "leftColumn": 3,
                              "dynamicBindingPathList": [],
                              "fontSize": "PARAGRAPH",
                              "text": "homepage:"
                            },
                            {
                              "widgetName": "Text14",
                              "rightColumn": 19,
                              "textAlign": "RIGHT",
                              "widgetId": "8fm60omwwv",
                              "topRow": 26,
                              "bottomRow": 30,
                              "parentRowSpace": 10,
                              "isVisible": "true",
                              "fontStyle": "BOLD",
                              "type": "TEXT_WIDGET",
                              "textColor": "#231F20",
                              "version": 1,
                              "parentId": "tp9pui0e6y",
                              "isLoading": false,
                              "parentColumnSpace": 8.0625,
                              "dynamicTriggerPathList": [],
                              "leftColumn": 3,
                              "dynamicBindingPathList": [],
                              "fontSize": "PARAGRAPH",
                              "text": "imdb_id:"
                            },
                            {
                              "widgetName": "Text13Copy",
                              "rightColumn": 35,
                              "textAlign": "LEFT",
                              "widgetId": "18x7vdv3gs",
                              "topRow": 0,
                              "bottomRow": 4,
                              "isVisible": "true",
                              "fontStyle": "BOLD",
                              "type": "TEXT_WIDGET",
                              "textColor": "#231F20",
                              "version": 1,
                              "shouldScroll": false,
                              "parentId": "tp9pui0e6y",
                              "isLoading": false,
                              "dynamicTriggerPathList": [],
                              "leftColumn": 0,
                              "dynamicBindingPathList": [],
                              "fontSize": "HEADING1",
                              "text": "Insert Row"
                            },
                            {
                              "widgetName": "insert_col_input1",
                              "displayName": "Input",
                              "iconSVG": "/static/media/icon.9f505595.svg",
                              "topRow": 5,
                              "bottomRow": 9,
                              "parentRowSpace": 10,
                              "autoFocus": false,
                              "type": "INPUT_WIDGET_V2",
                              "hideCard": false,
                              "animateLoading": false,
                              "parentColumnSpace": 7.685546875,
                              "dynamicTriggerPathList": [],
                              "resetOnSubmit": true,
                              "leftColumn": 21,
                              "dynamicBindingPathList": [],
                              "labelStyle": "",
                              "inputType": "TEXT",
                              "placeholderText": "genres",
                              "isDisabled": false,
                              "key": "0equv9lg65",
                              "validation": "true",
                              "isRequired": true,
                              "rightColumn": 61,
                              "widgetId": "r07mzbm43d",
                              "isVisible": "true",
                              "label": "",
                              "version": 2,
                              "parentId": "tp9pui0e6y",
                              "renderMode": "CANVAS",
                              "isLoading": false,
                              "iconAlign": "left",
                              "defaultText": ""
                            },
                            {
                              "widgetName": "insert_col_input2",
                              "displayName": "Input",
                              "iconSVG": "/static/media/icon.9f505595.svg",
                              "topRow": 12,
                              "bottomRow": 16,
                              "parentRowSpace": 10,
                              "autoFocus": false,
                              "type": "INPUT_WIDGET_V2",
                              "hideCard": false,
                              "animateLoading": false,
                              "parentColumnSpace": 7.685546875,
                              "dynamicTriggerPathList": [],
                              "resetOnSubmit": true,
                              "leftColumn": 21,
                              "dynamicBindingPathList": [],
                              "labelStyle": "",
                              "inputType": "TEXT",
                              "placeholderText": "title",
                              "isDisabled": false,
                              "key": "0equv9lg65",
                              "validation": "true",
                              "isRequired": true,
                              "rightColumn": 61,
                              "widgetId": "b1y8w16g8n",
                              "isVisible": "true",
                              "label": "",
                              "version": 2,
                              "parentId": "tp9pui0e6y",
                              "renderMode": "CANVAS",
                              "isLoading": false,
                              "iconAlign": "left",
                              "defaultText": ""
                            },
                            {
                              "widgetName": "insert_col_input3",
                              "displayName": "Input",
                              "iconSVG": "/static/media/icon.9f505595.svg",
                              "topRow": 19,
                              "bottomRow": 23,
                              "parentRowSpace": 10,
                              "autoFocus": false,
                              "type": "INPUT_WIDGET_V2",
                              "hideCard": false,
                              "animateLoading": false,
                              "parentColumnSpace": 7.685546875,
                              "dynamicTriggerPathList": [],
                              "resetOnSubmit": true,
                              "leftColumn": 21,
                              "dynamicBindingPathList": [],
                              "labelStyle": "",
                              "inputType": "TEXT",
                              "placeholderText": "homepage",
                              "isDisabled": false,
                              "key": "0equv9lg65",
                              "validation": "true",
                              "isRequired": true,
                              "rightColumn": 61,
                              "widgetId": "2hseu4ai1m",
                              "isVisible": "true",
                              "label": "",
                              "version": 2,
                              "parentId": "tp9pui0e6y",
                              "renderMode": "CANVAS",
                              "isLoading": false,
                              "iconAlign": "left",
                              "defaultText": ""
                            },
                            {
                              "widgetName": "insert_col_input4",
                              "displayName": "Input",
                              "iconSVG": "/static/media/icon.9f505595.svg",
                              "topRow": 26,
                              "bottomRow": 30,
                              "parentRowSpace": 10,
                              "autoFocus": false,
                              "type": "INPUT_WIDGET_V2",
                              "hideCard": false,
                              "animateLoading": false,
                              "parentColumnSpace": 7.685546875,
                              "dynamicTriggerPathList": [],
                              "resetOnSubmit": true,
                              "leftColumn": 21,
                              "dynamicBindingPathList": [],
                              "labelStyle": "",
                              "inputType": "TEXT",
                              "placeholderText": "imdb_id",
                              "isDisabled": false,
                              "key": "0equv9lg65",
                              "validation": "true",
                              "isRequired": true,
                              "rightColumn": 61,
                              "widgetId": "yslrtpwrzf",
                              "isVisible": "true",
                              "label": "",
                              "version": 2,
                              "parentId": "tp9pui0e6y",
                              "renderMode": "CANVAS",
                              "isLoading": false,
                              "iconAlign": "left",
                              "defaultText": ""
                            }
                          ]
                        }
                      ]
                    }
                  ],
                  "isDisabled": false
                }
              ],
              "width": 532,
              "height": 600
            },
            {
              "widgetName": "Form1",
              "backgroundColor": "white",
              "rightColumn": 64,
              "dynamicPropertyPathList": [
                {
                  "key": "isVisible"
                }
              ],
              "widgetId": "m7dvlazbn7",
              "topRow": 0,
              "bottomRow": 46,
              "parentRowSpace": 10,
              "isVisible": "{{!!data_table.selectedRow._id}}",
              "type": "FORM_WIDGET",
              "parentId": "0",
              "isLoading": false,
              "shouldScrollContents": true,
              "parentColumnSpace": 18.8828125,
              "dynamicTriggerPathList": [],
              "leftColumn": 40,
              "dynamicBindingPathList": [
                {
                  "key": "isVisible"
                }
              ],
              "children": [
                {
                  "widgetName": "Canvas2",
                  "rightColumn": 528.71875,
                  "detachFromLayout": true,
                  "widgetId": "cicukwhp5j",
                  "containerStyle": "none",
                  "topRow": 0,
                  "bottomRow": 450,
                  "parentRowSpace": 1,
                  "isVisible": "true",
                  "canExtend": false,
                  "type": "CANVAS_WIDGET",
                  "version": 1,
                  "parentId": "m7dvlazbn7",
                  "minHeight": 460,
                  "isLoading": false,
                  "parentColumnSpace": 1,
                  "dynamicTriggerPathList": [],
                  "leftColumn": 0,
                  "dynamicBindingPathList": [],
                  "children": [
                    {
                      "resetFormOnClick": false,
                      "widgetName": "update_button",
                      "rightColumn": 63,
                      "onClick": "{{UpdateQuery.run(() => FindQuery.run(), () => showAlert('Error while updating resource!','error'))}}",
                      "isDefaultClickDisabled": true,
                      "dynamicPropertyPathList": [],
                      "buttonColor": "#03B365",
                      "widgetId": "4gnygu5jew",
                      "topRow": 39,
                      "bottomRow": 43,
                      "isVisible": "true",
                      "type": "FORM_BUTTON_WIDGET",
                      "version": 1,
                      "recaptchaType": "V3",
                      "parentId": "cicukwhp5j",
                      "isLoading": false,
                      "dynamicTriggerPathList": [
                        {
                          "key": "onClick"
                        }
                      ],
                      "disabledWhenInvalid": true,
                      "leftColumn": 47,
                      "dynamicBindingPathList": [],
                      "buttonVariant": "PRIMARY",
                      "text": "Update"
                    },
                    {
                      "resetFormOnClick": true,
                      "widgetName": "reset_update_button",
                      "rightColumn": 46,
                      "onClick": "",
                      "isDefaultClickDisabled": true,
                      "dynamicPropertyPathList": [],
                      "buttonColor": "#03B365",
                      "widgetId": "twwgpz5wfu",
                      "topRow": 39,
                      "bottomRow": 43,
                      "isVisible": "true",
                      "type": "FORM_BUTTON_WIDGET",
                      "version": 1,
                      "recaptchaType": "V3",
                      "parentId": "cicukwhp5j",
                      "isLoading": false,
                      "dynamicTriggerPathList": [
                        {
                          "key": "onClick"
                        }
                      ],
                      "disabledWhenInvalid": false,
                      "leftColumn": 28,
                      "dynamicBindingPathList": [],
                      "buttonVariant": "SECONDARY",
                      "text": "Reset"
                    },
                    {
                      "widgetName": "Text9",
                      "rightColumn": 63,
                      "textAlign": "LEFT",
                      "widgetId": "4hnz8ktmz5",
                      "topRow": 0,
                      "bottomRow": 6,
                      "parentRowSpace": 10,
                      "isVisible": "true",
                      "fontStyle": "BOLD",
                      "type": "TEXT_WIDGET",
                      "textColor": "#231F20",
                      "version": 1,
                      "parentId": "cicukwhp5j",
                      "isLoading": false,
                      "parentColumnSpace": 8.8963623046875,
                      "dynamicTriggerPathList": [],
                      "leftColumn": 1,
                      "dynamicBindingPathList": [],
                      "fontSize": "HEADING1",
                      "text": "Update Selected Row"
                    },
                    {
                      "widgetName": "Text17",
                      "rightColumn": 18,
                      "textAlign": "RIGHT",
                      "widgetId": "afzzc7q8af",
                      "topRow": 8,
                      "bottomRow": 12,
                      "parentRowSpace": 10,
                      "isVisible": "true",
                      "fontStyle": "BOLD",
                      "type": "TEXT_WIDGET",
                      "textColor": "#231F20",
                      "version": 1,
                      "parentId": "cicukwhp5j",
                      "isLoading": false,
                      "parentColumnSpace": 7.15625,
                      "dynamicTriggerPathList": [],
                      "leftColumn": 1,
                      "dynamicBindingPathList": [],
                      "fontSize": "PARAGRAPH",
                      "text": "genres:"
                    },
                    {
                      "widgetName": "Text18",
                      "rightColumn": 18,
                      "textAlign": "RIGHT",
                      "widgetId": "xqcsd2e5dj",
                      "topRow": 15,
                      "bottomRow": 19,
                      "parentRowSpace": 10,
                      "isVisible": "true",
                      "fontStyle": "BOLD",
                      "type": "TEXT_WIDGET",
                      "textColor": "#231F20",
                      "version": 1,
                      "parentId": "cicukwhp5j",
                      "isLoading": false,
                      "parentColumnSpace": 7.15625,
                      "dynamicTriggerPathList": [],
                      "leftColumn": 1,
                      "dynamicBindingPathList": [],
                      "fontSize": "PARAGRAPH",
                      "text": "title:"
                    },
                    {
                      "widgetName": "Text19",
                      "rightColumn": 18,
                      "textAlign": "RIGHT",
                      "widgetId": "l109ilp3vq",
                      "topRow": 22,
                      "bottomRow": 26,
                      "parentRowSpace": 10,
                      "isVisible": "true",
                      "fontStyle": "BOLD",
                      "type": "TEXT_WIDGET",
                      "textColor": "#231F20",
                      "version": 1,
                      "parentId": "cicukwhp5j",
                      "isLoading": false,
                      "parentColumnSpace": 7.15625,
                      "dynamicTriggerPathList": [],
                      "leftColumn": 1,
                      "dynamicBindingPathList": [],
                      "fontSize": "PARAGRAPH",
                      "text": "homepage:"
                    },
                    {
                      "widgetName": "Text20",
                      "rightColumn": 18,
                      "textAlign": "RIGHT",
                      "widgetId": "gqpwf0yng6",
                      "topRow": 29,
                      "bottomRow": 33,
                      "parentRowSpace": 10,
                      "isVisible": "true",
                      "fontStyle": "BOLD",
                      "type": "TEXT_WIDGET",
                      "textColor": "#231F20",
                      "version": 1,
                      "parentId": "cicukwhp5j",
                      "isLoading": false,
                      "parentColumnSpace": 7.15625,
                      "dynamicTriggerPathList": [],
                      "leftColumn": 1,
                      "dynamicBindingPathList": [],
                      "fontSize": "PARAGRAPH",
                      "text": "imdb_id:"
                    },
                    {
                      "widgetName": "update_col_1",
                      "displayName": "Input",
                      "iconSVG": "/static/media/icon.9f505595.svg",
                      "topRow": 8,
                      "bottomRow": 12,
                      "parentRowSpace": 10,
                      "autoFocus": false,
                      "type": "INPUT_WIDGET_V2",
                      "hideCard": false,
                      "animateLoading": false,
                      "parentColumnSpace": 10.5390625,
                      "dynamicTriggerPathList": [],
                      "resetOnSubmit": true,
                      "leftColumn": 19,
                      "dynamicBindingPathList": [
                        {
                          "key": "defaultText"
                        }
                      ],
                      "labelStyle": "",
                      "inputType": "TEXT",
                      "isDisabled": false,
                      "key": "0equv9lg65",
                      "validation": "true",
                      "isRequired": true,
                      "rightColumn": 63,
                      "widgetId": "w1v1l55z5w",
                      "isVisible": "true",
                      "label": "",
                      "version": 2,
                      "parentId": "cicukwhp5j",
                      "renderMode": "CANVAS",
                      "isLoading": false,
                      "iconAlign": "left",
                      "defaultText": "{{data_table.selectedRow.genres}}"
                    },
                    {
                      "widgetName": "update_col_2",
                      "displayName": "Input",
                      "iconSVG": "/static/media/icon.9f505595.svg",
                      "topRow": 15,
                      "bottomRow": 19,
                      "parentRowSpace": 10,
                      "autoFocus": false,
                      "type": "INPUT_WIDGET_V2",
                      "hideCard": false,
                      "animateLoading": false,
                      "parentColumnSpace": 10.5390625,
                      "dynamicTriggerPathList": [],
                      "resetOnSubmit": true,
                      "leftColumn": 19,
                      "dynamicBindingPathList": [
                        {
                          "key": "defaultText"
                        }
                      ],
                      "labelStyle": "",
                      "inputType": "TEXT",
                      "isDisabled": false,
                      "key": "0equv9lg65",
                      "validation": "true",
                      "isRequired": true,
                      "rightColumn": 63,
                      "widgetId": "s4pbk7f7dg",
                      "isVisible": "true",
                      "label": "",
                      "version": 2,
                      "parentId": "cicukwhp5j",
                      "renderMode": "CANVAS",
                      "isLoading": false,
                      "iconAlign": "left",
                      "defaultText": "{{data_table.selectedRow.title}}"
                    },
                    {
                      "widgetName": "update_col_3",
                      "displayName": "Input",
                      "iconSVG": "/static/media/icon.9f505595.svg",
                      "topRow": 22,
                      "bottomRow": 26,
                      "parentRowSpace": 10,
                      "autoFocus": false,
                      "type": "INPUT_WIDGET_V2",
                      "hideCard": false,
                      "animateLoading": false,
                      "parentColumnSpace": 10.5390625,
                      "dynamicTriggerPathList": [],
                      "resetOnSubmit": true,
                      "leftColumn": 19,
                      "dynamicBindingPathList": [
                        {
                          "key": "defaultText"
                        }
                      ],
                      "labelStyle": "",
                      "inputType": "TEXT",
                      "isDisabled": false,
                      "key": "0equv9lg65",
                      "validation": "true",
                      "isRequired": true,
                      "rightColumn": 63,
                      "widgetId": "qpzuy0ne6u",
                      "isVisible": "true",
                      "label": "",
                      "version": 2,
                      "parentId": "cicukwhp5j",
                      "renderMode": "CANVAS",
                      "isLoading": false,
                      "regex": "",
                      "iconAlign": "left",
                      "defaultText": "{{data_table.selectedRow.homepage}}"
                    },
                    {
                      "widgetName": "update_col_4",
                      "displayName": "Input",
                      "iconSVG": "/static/media/icon.9f505595.svg",
                      "topRow": 29,
                      "bottomRow": 33,
                      "parentRowSpace": 10,
                      "autoFocus": false,
                      "type": "INPUT_WIDGET_V2",
                      "hideCard": false,
                      "animateLoading": false,
                      "parentColumnSpace": 10.5390625,
                      "dynamicTriggerPathList": [],
                      "resetOnSubmit": true,
                      "leftColumn": 19,
                      "dynamicBindingPathList": [
                        {
                          "key": "defaultText"
                        }
                      ],
                      "labelStyle": "",
                      "inputType": "TEXT",
                      "isDisabled": false,
                      "key": "0equv9lg65",
                      "validation": "true",
                      "isRequired": true,
                      "rightColumn": 63,
                      "widgetId": "gep4mc8qrd",
                      "isVisible": "true",
                      "label": "",
                      "version": 2,
                      "parentId": "cicukwhp5j",
                      "renderMode": "CANVAS",
                      "isLoading": false,
                      "iconAlign": "left",
                      "defaultText": "{{data_table.selectedRow.imdb_id}}"
                    }
                  ]
                }
              ]
            }
          ]
        },
        "layoutOnLoadActions": [
          [
            {
              "id": "HomePage_FindQuery",
              "name": "FindQuery",
              "confirmBeforeExecute": false,
              "pluginType": "DB",
              "jsonPathKeys": [
                "(data_table.pageNo - 1) * data_table.pageSize",
                "data_table.pageSize",
                "data_table.searchText||\"\"",
                "key_select.selectedOptionValue",
                "order_select.selectedOptionValue"
              ],
              "timeoutInMillisecond": 10000
            }
          ]
        ],
        "widgetNames": [
          "Alert_text",
          "Button1",
          "Canvas1",
          "Canvas2",
          "Canvas3",
          "Canvas4",
          "Canvas5",
          "Container1",
          "Delete_Button",
          "Delete_Modal",
          "Form1",
          "Form2",
          "Insert_Modal",
          "MainContainer",
          "Text12",
          "Text13Copy",
          "Text14",
          "Text15",
          "Text16",
          "Text17",
          "Text18",
          "Text19",
          "Text20",
          "Text21",
          "Text22",
          "Text23",
          "Text9",
          "add_btn",
          "data_table",
          "insert_button",
          "insert_col_input1",
          "insert_col_input2",
          "insert_col_input3",
          "insert_col_input4",
          "key_select",
          "order_select",
          "refresh_btn",
          "reset_button",
          "reset_update_button",
          "update_button",
          "update_col_1",
          "update_col_2",
          "update_col_3",
          "update_col_4"
        ],
        "validOnPageLoadActions": true,
        "id": "HomePage",
        "deleted": false,
        "policies": [],
        "userPermissions": []
      }
    ],
    "userPermissions": [],
    "policies": [],
    "isHidden": false
  },
  "deleted": false,
  "policies": [],
  "gitSyncId": "6226e5125386390b2c7095f5_6226e5125386390b2c7095f7"
}